{
    "alpha" : {
        "api_auth_qrcode" : "https://sdk-auth.trueid-alpha.net/v4/oauth2/qrscan",
        "api_get_root_token_credential" : "https://core-auth.trueid-alpha.net/trueconnect/token",
        "api_get_token_url" : "https://sdk-auth.trueid-alpha.net/v4/oauth2/token",
        "api_get_user_info_url" : "https://sdk-data.trueid-alpha.net/v4/resource/userinfo/",
        "api_parent_get_token_info_url" : "https://auth.trueid-alpha.net/rest/oauth2app/tokeninfo",
        "api_revoke_url" : "https://sdk-auth.trueid-alpha.net/v4/oauth2/revoke",
        "avatar_url" : "https://xxxxxxx",
        "crt_url" : "https://storage.googleapis.com/trueid/trueid.crts",
        "default_scope" : "public_profile,mobile",
        "jwk_url" : "https://storage.googleapis.com/trueid/trueid.jwk",
        "kid_android" : "c4ca4238a0b923820dcc509a6f75849b",
        "kid_ios" : "c4ca4238a0b923820dcc509a6f75849b",
        "ntp_android" : "time.google.com",
        "ntp_ios" : "time.apple.com",
        "policy_en_url" : "https://fn.dmpcdn.com/TrueIDWeb/policy/",
        "policy_th_url" : "https://fn.dmpcdn.com/TrueIDWeb/policy/",
        "sdk_true_domains" : [ "com.tdcm.truetv", "com.truecorp.truevideo", "com.tdcm.trueid", "com.truecorp.truetv", "com.tdcm.iservice", "com.tdcm.mymusic", "com.tdp.truemusic", "com.tdcm.true4u", "com.truemoveent.trueid", "com.truemoveent.trueidapp", "com.tdcm.trueidapp", "tmp.samplesdk.trueid-truetv", "com.truemove.enterprise.truemusic", "com.tdp.truemusic4", "com.sso.examplesdk", "com.truemove.enterprise.TrueIDTest", "com.devond.obdiee" ],
        "server_datetime" : "https://us-central1-trueid-141203.cloudfunctions.net/sdk-datetime/date",
        "term_en_url" : "https://fn.dmpcdn.com/TrueIDWeb/terms/",
        "term_th_url" : "https://fn.dmpcdn.com/TrueIDWeb/terms/",
        "time_refresh_token" : 3000,
        "timeout" : 30000,
        "timeout_api_webview" : 30,
        "tmn_binding_url" : "https://link-profile.trueid-alpha.net/v1/binding",
        "web_recovery_url" : "https://sdk-accounts.trueid-alpha.net/recovery",
        "web_signin_url" : "https://sdk-accounts.trueid-alpha.net/signin",
        "web_signup_url" : "https://sdk-accounts.trueid-alpha.net/signup",
        "web_update_password" : "https://sdk-accounts.trueid-alpha.net/profile/newpassword",
        "web_verify_thaiid_url" : "https://sdk-accounts.trueid-alpha.net/mapping"
    },
    "production" : {
        "api_auth_qrcode" : "https://sdk-auth.trueid.net/v4/oauth2/qrscan",
        "api_get_root_token_credential" : "https://core-auth.trueid.net/trueconnect/token",
        "api_get_token_url" : "https://sdk-auth.trueid.net/v4/oauth2/token",
        "api_get_user_info_url" : "https://sdk-data.trueid.net/v4/resource/userinfo/",
        "api_parent_get_token_info_url" : "https://auth.trueid.net/rest/oauth2app/tokeninfo",
        "api_revoke_url" : "https://sdk-auth.trueid.net/v4/oauth2/revoke",
        "avatar_url" : "https://xxxxxxx",
        "crt_url" : "https://aaawidget.dmpcdn.com/trueid.crts",
        "default_scope" : "public_profile",
        "jwk_url" : "https://aaawidget.dmpcdn.com/trueid.jwk",
        "kid_android" : "c4ca4238a0b923820dcc509a6f75849b",
        "kid_ios" : "c4ca4238a0b923820dcc509a6f75849b",
        "ntp_android" : "time.google.com",
        "ntp_ios" : "time.apple.com",
        "policy_en_url" : "https://fn.dmpcdn.com/TrueIDWeb/policy/",
        "policy_th_url" : "https://fn.dmpcdn.com/TrueIDWeb/policy/",
        "sdk_true_domains" : [ "com.tdcm.truetv", "com.truecorp.truevideo", "com.tdcm.trueid", "com.truecorp.truetv", "com.tdcm.iservice", "com.tdcm.mymusic", "com.tdp.truemusic", "com.tdcm.true4u", "com.truemoveent.trueid", "com.truemoveent.trueidapp", "com.tdcm.trueidapp", "tmp.samplesdk.trueid-truetv", "com.truemove.enterprise.truemusic", "com.tdp.truemusic4", "com.sso.examplesdk", "com.truemove.enterprise.TrueIDTest", "com.devond.obdiee" ],
        "server_datetime" : "https://us-central1-trueid-141203.cloudfunctions.net/sdk-datetime/date",
        "term_en_url" : "https://fn.dmpcdn.com/TrueIDWeb/terms/",
        "term_th_url" : "https://fn.dmpcdn.com/TrueIDWeb/terms/",
        "time_refresh_token" : 3000,
        "timeout" : 30000,
        "timeout_api_webview" : 30,
        "tmn_binding_url" : "https://link-profile.trueid.net/v1/binding",
        "web_recovery_url" : "https://sdk-accounts.trueid.net/recovery",
        "web_signin_url" : "https://sdk-accounts.trueid.net/signin",
        "web_signup_url" : "https://sdk-accounts.trueid.net/signup",
        "web_update_password" : "https://sdk-accounts.trueid.net/profile/newpassword",
        "web_verify_thaiid_url" : "https://sdk-accounts.trueid.net/mapping"
    },
    "qr" : {
        "scanner" : {
            "en" : {
                "confirm_button" : "Confirm",
                "confirm_msg_1" : "Confirm to login your TrueID account on other device",
                "failed_button" : "OK",
                "failed_msg_1" : "Error!",
                "failed_msg_2" : "Please try again later",
                "scan_login" : "Login with QR Code",
                "scan_msg_1" : "Scan QR Code to login",
                "start_msg" : "QR Code to scan it with your device's camera",
                "successful_button" : "OK",
                "successful_msg_1" : "Successful!",
                "successful_msg_2" : "Please check your other device's screen"
            },
            "th" : {
                "confirm_button" : "ยืนยัน",
                "confirm_msg_1" : "ยืนยันเข้าสู่ระบบด้วยบัญชีทรูไอดีบนอุปกรณ์อื่น",
                "failed_button" : "OK",
                "failed_msg_1" : "Error!",
                "failed_msg_2" : "Please try again later",
                "scan_login" : "เข้าสู่ระบบด้วย QR Code",
                "scan_msg_1" : "สแกน QR Code เพื่อเข้าสู่ระบบ",
                "start_msg" : "QR Code to scan it with your device's camera",
                "successful_button" : "OK",
                "successful_msg_1" : "Successful!",
                "successful_msg_2" : "Please check your other device's screen"
            }
        }
    },
    "sdk" : {
        "TITLE_IOS" : {
            "EN" : {
                "forget" : "Forgot Password",
                "login" : "Login",
                "signup" : "Sign Up",
                "verify" : "Verify Account"
            },
            "TH" : {
                "forget" : "ลืมรหัสผ่าน",
                "login" : "เข้าสู่ระบบ",
                "signup" : "สร้างบัญชีทรูไอดี",
                "verify" : "ระบุตัวตนผู้ใช้"
            }
        }
    },
    "staging" : {
        "api_auth_qrcode" : "https://sdk-auth.trueid-dev.net/v4/oauth2/qrscan",
        "api_get_root_token_credential" : "https://core-auth.trueid-dev.net/trueconnect/token",
        "api_get_token_url" : "https://sdk-auth.trueid-dev.net/v4/oauth2/token",
        "api_get_user_info_url" : "https://sdk-data.trueid-dev.net/v4/resource/userinfo/",
        "api_parent_get_token_info_url" : "https://auth.trueid-dev.net/rest/oauth2app/tokeninfo",
        "api_revoke_url" : "https://sdk-auth.trueid-dev.net/v4/oauth2/revoke",
        "avatar_url" : "https://xxxxxxx",
        "crt_url" : "https://storage.googleapis.com/trueid/trueid.crts",
        "default_scope" : "public_profile,mobile",
        "jwk_url" : "https://storage.googleapis.com/trueid/trueid.jwk",
        "kid_android" : "c4ca4238a0b923820dcc509a6f75849b",
        "kid_ios" : "c4ca4238a0b923820dcc509a6f75849b",
        "ntp_android" : "time.google.com",
        "ntp_ios" : "time.apple.com",
        "policy_en_url" : "https://fn.dmpcdn.com/TrueIDWeb/policy/",
        "policy_th_url" : "https://fn.dmpcdn.com/TrueIDWeb/policy/",
        "sdk_true_domains" : [ "com.tdcm.truetv", "com.truecorp.truevideo", "com.tdcm.trueid", "com.truecorp.truetv", "com.tdcm.iservice", "com.tdcm.mymusic", "com.tdp.truemusic", "com.tdcm.true4u", "com.truemoveent.trueid", "com.truemoveent.trueidapp", "com.tdcm.trueidapp", "tmp.samplesdk.trueid-truetv", "com.truemove.enterprise.truemusic", "com.tdp.truemusic4", "com.sso.examplesdk", "com.truemove.enterprise.TrueIDTest", "com.devond.obdiee" ],
        "server_datetime" : "https://us-central1-trueid-141203.cloudfunctions.net/sdk-datetime/date",
        "term_en_url" : "https://fn.dmpcdn.com/TrueIDWeb/terms/",
        "term_th_url" : "https://fn.dmpcdn.com/TrueIDWeb/terms/",
        "time_refresh_token" : 3000,
        "timeout" : 30000,
        "timeout_api_webview" : 30,
        "tmn_binding_url" : "https://link-profile.trueid-dev.net/v1/binding",
        "web_recovery_url" : "https://sdk-accounts.trueid-dev.net/recovery",
        "web_signin_url" : "https://sdk-accounts.trueid-dev.net/signin",
        "web_signup_url" : "https://sdk-accounts.trueid-dev.net/signup",
        "web_update_password" : "https://sdk-accounts.trueid-dev.net/profile/newpassword",
        "web_verify_thaiid_url" : "https://sdk-accounts.trueid-dev.net/mapping"
    }
}
